^C:\USERS\DONALD12\DESKTOP\DOCUMENTS\BACKGROUND.CPP
/c /I"C:\Users\Donald12\Desktop\allegro-4.4.2-msvc-10.0\include" /I"C:\Users\Donald12\Desktop\allegro-4.4.2-msvc-10.0" /I"C:\Users\SALISU\Desktop\allegro-4.4.2-msvc-8.0\include" /ZI /nologo /W3 /WX- /Od /Oy- /D _MBCS /Gm /EHsc /RTC1 /MDd /GS /fp:precise /Zc:wchar_t /Zc:forScope /Fo"Debug\\" /Fd"Debug\vc100.pdb" /Gd /TP /analyze- /errorReport:prompt C:\USERS\DONALD12\DESKTOP\DOCUMENTS\BACKGROUND.CPP
^C:\USERS\DONALD12\DESKTOP\DOCUMENTS\BULLET.CPP
/c /I"C:\Users\Donald12\Desktop\allegro-4.4.2-msvc-10.0\include" /I"C:\Users\Donald12\Desktop\allegro-4.4.2-msvc-10.0" /I"C:\Users\SALISU\Desktop\allegro-4.4.2-msvc-8.0\include" /ZI /nologo /W3 /WX- /Od /Oy- /D _MBCS /Gm /EHsc /RTC1 /MDd /GS /fp:precise /Zc:wchar_t /Zc:forScope /Fo"Debug\\" /Fd"Debug\vc100.pdb" /Gd /TP /analyze- /errorReport:prompt C:\USERS\DONALD12\DESKTOP\DOCUMENTS\BULLET.CPP
^C:\USERS\DONALD12\DESKTOP\DOCUMENTS\DESTROYED.CPP
/c /I"C:\Users\Donald12\Desktop\allegro-4.4.2-msvc-10.0\include" /I"C:\Users\Donald12\Desktop\allegro-4.4.2-msvc-10.0" /I"C:\Users\SALISU\Desktop\allegro-4.4.2-msvc-8.0\include" /ZI /nologo /W3 /WX- /Od /Oy- /D _MBCS /Gm /EHsc /RTC1 /MDd /GS /fp:precise /Zc:wchar_t /Zc:forScope /Fo"Debug\\" /Fd"Debug\vc100.pdb" /Gd /TP /analyze- /errorReport:prompt C:\USERS\DONALD12\DESKTOP\DOCUMENTS\DESTROYED.CPP
^C:\USERS\DONALD12\DESKTOP\DOCUMENTS\INVADER.CPP
/c /I"C:\Users\Donald12\Desktop\allegro-4.4.2-msvc-10.0\include" /I"C:\Users\Donald12\Desktop\allegro-4.4.2-msvc-10.0" /I"C:\Users\SALISU\Desktop\allegro-4.4.2-msvc-8.0\include" /ZI /nologo /W3 /WX- /Od /Oy- /D _MBCS /Gm /EHsc /RTC1 /MDd /GS /fp:precise /Zc:wchar_t /Zc:forScope /Fo"Debug\\" /Fd"Debug\vc100.pdb" /Gd /TP /analyze- /errorReport:prompt C:\USERS\DONALD12\DESKTOP\DOCUMENTS\INVADER.CPP
^C:\USERS\DONALD12\DESKTOP\DOCUMENTS\MAIN.CPP
/c /I"C:\Users\Donald12\Desktop\allegro-4.4.2-msvc-10.0\include" /I"C:\Users\Donald12\Desktop\allegro-4.4.2-msvc-10.0" /I"C:\Users\SALISU\Desktop\allegro-4.4.2-msvc-8.0\include" /ZI /nologo /W3 /WX- /Od /Oy- /D _MBCS /Gm /EHsc /RTC1 /MDd /GS /fp:precise /Zc:wchar_t /Zc:forScope /Fo"Debug\\" /Fd"Debug\vc100.pdb" /Gd /TP /analyze- /errorReport:prompt C:\USERS\DONALD12\DESKTOP\DOCUMENTS\MAIN.CPP
^C:\USERS\DONALD12\DESKTOP\DOCUMENTS\PLAYER.CPP
/c /I"C:\Users\Donald12\Desktop\allegro-4.4.2-msvc-10.0\include" /I"C:\Users\Donald12\Desktop\allegro-4.4.2-msvc-10.0" /I"C:\Users\SALISU\Desktop\allegro-4.4.2-msvc-8.0\include" /ZI /nologo /W3 /WX- /Od /Oy- /D _MBCS /Gm /EHsc /RTC1 /MDd /GS /fp:precise /Zc:wchar_t /Zc:forScope /Fo"Debug\\" /Fd"Debug\vc100.pdb" /Gd /TP /analyze- /errorReport:prompt C:\USERS\DONALD12\DESKTOP\DOCUMENTS\PLAYER.CPP
