^C:\USERS\DONALD12\DESKTOP\DOCUMENTS\PLAYER.CPP
C:\USERS\DONALD12\DESKTOP\DOCUMENTS\PLAYER.H
C:\USERS\DONALD12\DESKTOP\ALLEGRO-4.4.2-MSVC-10.0\INCLUDE\ALLEGRO.H
C:\USERS\DONALD12\DESKTOP\ALLEGRO-4.4.2-MSVC-10.0\INCLUDE\ALLEGRO\BASE.H
C:\PROGRAM FILES (X86)\MICROSOFT VISUAL STUDIO 10.0\VC\INCLUDE\ERRNO.H
C:\PROGRAM FILES (X86)\MICROSOFT VISUAL STUDIO 10.0\VC\INCLUDE\CRTDEFS.H
C:\PROGRAM FILES (X86)\MICROSOFT VISUAL STUDIO 10.0\VC\INCLUDE\SAL.H
C:\PROGRAM FILES (X86)\MICROSOFT VISUAL STUDIO 10.0\VC\INCLUDE\CODEANALYSIS\SOURCEANNOTATIONS.H
C:\PROGRAM FILES (X86)\MICROSOFT VISUAL STUDIO 10.0\VC\INCLUDE\VADEFS.H
C:\PROGRAM FILES (X86)\MICROSOFT VISUAL STUDIO 10.0\VC\INCLUDE\LIMITS.H
C:\PROGRAM FILES (X86)\MICROSOFT VISUAL STUDIO 10.0\VC\INCLUDE\STDARG.H
C:\PROGRAM FILES (X86)\MICROSOFT VISUAL STUDIO 10.0\VC\INCLUDE\STDDEF.H
C:\PROGRAM FILES (X86)\MICROSOFT VISUAL STUDIO 10.0\VC\INCLUDE\STDLIB.H
C:\PROGRAM FILES (X86)\MICROSOFT VISUAL STUDIO 10.0\VC\INCLUDE\TIME.H
C:\PROGRAM FILES (X86)\MICROSOFT VISUAL STUDIO 10.0\VC\INCLUDE\WTIME.INL
C:\PROGRAM FILES (X86)\MICROSOFT VISUAL STUDIO 10.0\VC\INCLUDE\TIME.INL
C:\PROGRAM FILES (X86)\MICROSOFT VISUAL STUDIO 10.0\VC\INCLUDE\STRING.H
C:\USERS\DONALD12\DESKTOP\ALLEGRO-4.4.2-MSVC-10.0\INCLUDE\ALLEGRO\INTERNAL\ALCONFIG.H
C:\USERS\DONALD12\DESKTOP\ALLEGRO-4.4.2-MSVC-10.0\INCLUDE\ALLEGRO\PLATFORM\ALPLATF.H
C:\USERS\DONALD12\DESKTOP\ALLEGRO-4.4.2-MSVC-10.0\INCLUDE\ALLEGRO\PLATFORM\ALMSVC.H
C:\PROGRAM FILES (X86)\MICROSOFT VISUAL STUDIO 10.0\VC\INCLUDE\IO.H
C:\PROGRAM FILES (X86)\MICROSOFT VISUAL STUDIO 10.0\VC\INCLUDE\FCNTL.H
C:\PROGRAM FILES (X86)\MICROSOFT VISUAL STUDIO 10.0\VC\INCLUDE\DIRECT.H
C:\PROGRAM FILES (X86)\MICROSOFT VISUAL STUDIO 10.0\VC\INCLUDE\MALLOC.H
C:\USERS\DONALD12\DESKTOP\ALLEGRO-4.4.2-MSVC-10.0\INCLUDE\ALLEGRO\PLATFORM\ASTDINT.H
C:\USERS\DONALD12\DESKTOP\ALLEGRO-4.4.2-MSVC-10.0\INCLUDE\ALLEGRO\SYSTEM.H
C:\USERS\DONALD12\DESKTOP\ALLEGRO-4.4.2-MSVC-10.0\INCLUDE\ALLEGRO\UNICODE.H
C:\USERS\DONALD12\DESKTOP\ALLEGRO-4.4.2-MSVC-10.0\INCLUDE\ALLEGRO\CONFIG.H
C:\USERS\DONALD12\DESKTOP\ALLEGRO-4.4.2-MSVC-10.0\INCLUDE\ALLEGRO\INLINE\SYSTEM.INL
C:\USERS\DONALD12\DESKTOP\ALLEGRO-4.4.2-MSVC-10.0\INCLUDE\ALLEGRO\DEBUG.H
C:\USERS\DONALD12\DESKTOP\ALLEGRO-4.4.2-MSVC-10.0\INCLUDE\ALLEGRO\MOUSE.H
C:\USERS\DONALD12\DESKTOP\ALLEGRO-4.4.2-MSVC-10.0\INCLUDE\ALLEGRO\TIMER.H
C:\USERS\DONALD12\DESKTOP\ALLEGRO-4.4.2-MSVC-10.0\INCLUDE\ALLEGRO\KEYBOARD.H
C:\USERS\DONALD12\DESKTOP\ALLEGRO-4.4.2-MSVC-10.0\INCLUDE\ALLEGRO\JOYSTICK.H
C:\USERS\DONALD12\DESKTOP\ALLEGRO-4.4.2-MSVC-10.0\INCLUDE\ALLEGRO\PALETTE.H
C:\USERS\DONALD12\DESKTOP\ALLEGRO-4.4.2-MSVC-10.0\INCLUDE\ALLEGRO\GFX.H
C:\USERS\DONALD12\DESKTOP\ALLEGRO-4.4.2-MSVC-10.0\INCLUDE\ALLEGRO\3D.H
C:\USERS\DONALD12\DESKTOP\ALLEGRO-4.4.2-MSVC-10.0\INCLUDE\ALLEGRO\FIXED.H
C:\USERS\DONALD12\DESKTOP\ALLEGRO-4.4.2-MSVC-10.0\INCLUDE\ALLEGRO\INLINE\GFX.INL
C:\USERS\DONALD12\DESKTOP\ALLEGRO-4.4.2-MSVC-10.0\INCLUDE\ALLEGRO\INLINE\ASM.INL
C:\USERS\DONALD12\DESKTOP\ALLEGRO-4.4.2-MSVC-10.0\INCLUDE\ALLEGRO\COLOR.H
C:\USERS\DONALD12\DESKTOP\ALLEGRO-4.4.2-MSVC-10.0\INCLUDE\ALLEGRO\INLINE\COLOR.INL
C:\USERS\DONALD12\DESKTOP\ALLEGRO-4.4.2-MSVC-10.0\INCLUDE\ALLEGRO\DRAW.H
C:\USERS\DONALD12\DESKTOP\ALLEGRO-4.4.2-MSVC-10.0\INCLUDE\ALLEGRO\INLINE\DRAW.INL
C:\USERS\DONALD12\DESKTOP\ALLEGRO-4.4.2-MSVC-10.0\INCLUDE\ALLEGRO\RLE.H
C:\USERS\DONALD12\DESKTOP\ALLEGRO-4.4.2-MSVC-10.0\INCLUDE\ALLEGRO\INLINE\RLE.INL
C:\USERS\DONALD12\DESKTOP\ALLEGRO-4.4.2-MSVC-10.0\INCLUDE\ALLEGRO\COMPILED.H
C:\USERS\DONALD12\DESKTOP\ALLEGRO-4.4.2-MSVC-10.0\INCLUDE\ALLEGRO\TEXT.H
C:\USERS\DONALD12\DESKTOP\ALLEGRO-4.4.2-MSVC-10.0\INCLUDE\ALLEGRO\FONT.H
C:\USERS\DONALD12\DESKTOP\ALLEGRO-4.4.2-MSVC-10.0\INCLUDE\ALLEGRO\FLI.H
C:\USERS\DONALD12\DESKTOP\ALLEGRO-4.4.2-MSVC-10.0\INCLUDE\ALLEGRO\GUI.H
C:\USERS\DONALD12\DESKTOP\ALLEGRO-4.4.2-MSVC-10.0\INCLUDE\ALLEGRO\SOUND.H
C:\USERS\DONALD12\DESKTOP\ALLEGRO-4.4.2-MSVC-10.0\INCLUDE\ALLEGRO\DIGI.H
C:\USERS\DONALD12\DESKTOP\ALLEGRO-4.4.2-MSVC-10.0\INCLUDE\ALLEGRO\STREAM.H
C:\USERS\DONALD12\DESKTOP\ALLEGRO-4.4.2-MSVC-10.0\INCLUDE\ALLEGRO\MIDI.H
C:\USERS\DONALD12\DESKTOP\ALLEGRO-4.4.2-MSVC-10.0\INCLUDE\ALLEGRO\FILE.H
C:\USERS\DONALD12\DESKTOP\ALLEGRO-4.4.2-MSVC-10.0\INCLUDE\ALLEGRO\LZSS.H
C:\USERS\DONALD12\DESKTOP\ALLEGRO-4.4.2-MSVC-10.0\INCLUDE\ALLEGRO\DATAFILE.H
C:\USERS\DONALD12\DESKTOP\ALLEGRO-4.4.2-MSVC-10.0\INCLUDE\ALLEGRO\FMATHS.H
C:\USERS\DONALD12\DESKTOP\ALLEGRO-4.4.2-MSVC-10.0\INCLUDE\ALLEGRO\INLINE\FMATHS.INL
C:\USERS\DONALD12\DESKTOP\ALLEGRO-4.4.2-MSVC-10.0\INCLUDE\ALLEGRO\MATRIX.H
C:\USERS\DONALD12\DESKTOP\ALLEGRO-4.4.2-MSVC-10.0\INCLUDE\ALLEGRO\INLINE\MATRIX.INL
C:\USERS\DONALD12\DESKTOP\ALLEGRO-4.4.2-MSVC-10.0\INCLUDE\ALLEGRO\QUAT.H
C:\USERS\DONALD12\DESKTOP\ALLEGRO-4.4.2-MSVC-10.0\INCLUDE\ALLEGRO\3DMATHS.H
C:\USERS\DONALD12\DESKTOP\ALLEGRO-4.4.2-MSVC-10.0\INCLUDE\ALLEGRO\INLINE\3DMATHS.INL
C:\USERS\DONALD12\DESKTOP\ALLEGRO-4.4.2-MSVC-10.0\INCLUDE\ALLEGRO\ALCOMPAT.H
C:\USERS\DONALD12\DESKTOP\ALLEGRO-4.4.2-MSVC-10.0\INCLUDE\ALLEGRO\FIX.H
C:\USERS\DONALD12\DESKTOP\ALLEGRO-4.4.2-MSVC-10.0\INCLUDE\ALLEGRO\INLINE\FIX.INL
C:\USERS\DONALD12\DESKTOP\ALLEGRO-4.4.2-MSVC-10.0\INCLUDE\ALLEGRO\PLATFORM\ALWIN.H
C:\USERS\DONALD12\DESKTOP\DOCUMENTS\BULLET.H
^C:\USERS\DONALD12\DESKTOP\DOCUMENTS\MAIN.CPP
C:\PROGRAM FILES (X86)\MICROSOFT VISUAL STUDIO 10.0\VC\INCLUDE\STDLIB.H
C:\PROGRAM FILES (X86)\MICROSOFT VISUAL STUDIO 10.0\VC\INCLUDE\CRTDEFS.H
C:\PROGRAM FILES (X86)\MICROSOFT VISUAL STUDIO 10.0\VC\INCLUDE\SAL.H
C:\PROGRAM FILES (X86)\MICROSOFT VISUAL STUDIO 10.0\VC\INCLUDE\CODEANALYSIS\SOURCEANNOTATIONS.H
C:\PROGRAM FILES (X86)\MICROSOFT VISUAL STUDIO 10.0\VC\INCLUDE\VADEFS.H
C:\PROGRAM FILES (X86)\MICROSOFT VISUAL STUDIO 10.0\VC\INCLUDE\LIMITS.H
C:\PROGRAM FILES (X86)\MICROSOFT VISUAL STUDIO 10.0\VC\INCLUDE\STDIO.H
C:\PROGRAM FILES (X86)\MICROSOFT VISUAL STUDIO 10.0\VC\INCLUDE\SWPRINTF.INL
C:\USERS\DONALD12\DESKTOP\DOCUMENTS\FUNCTIONS.H
C:\PROGRAM FILES (X86)\MICROSOFT VISUAL STUDIO 10.0\VC\INCLUDE\FSTREAM
C:\PROGRAM FILES (X86)\MICROSOFT VISUAL STUDIO 10.0\VC\INCLUDE\ISTREAM
C:\PROGRAM FILES (X86)\MICROSOFT VISUAL STUDIO 10.0\VC\INCLUDE\OSTREAM
C:\PROGRAM FILES (X86)\MICROSOFT VISUAL STUDIO 10.0\VC\INCLUDE\IOS
C:\PROGRAM FILES (X86)\MICROSOFT VISUAL STUDIO 10.0\VC\INCLUDE\XLOCNUM
C:\PROGRAM FILES (X86)\MICROSOFT VISUAL STUDIO 10.0\VC\INCLUDE\CLIMITS
C:\PROGRAM FILES (X86)\MICROSOFT VISUAL STUDIO 10.0\VC\INCLUDE\YVALS.H
C:\PROGRAM FILES (X86)\MICROSOFT VISUAL STUDIO 10.0\VC\INCLUDE\USE_ANSI.H
C:\PROGRAM FILES (X86)\MICROSOFT VISUAL STUDIO 10.0\VC\INCLUDE\CMATH
C:\PROGRAM FILES (X86)\MICROSOFT VISUAL STUDIO 10.0\VC\INCLUDE\MATH.H
C:\PROGRAM FILES (X86)\MICROSOFT VISUAL STUDIO 10.0\VC\INCLUDE\CSTDIO
C:\PROGRAM FILES (X86)\MICROSOFT VISUAL STUDIO 10.0\VC\INCLUDE\CSTDLIB
C:\PROGRAM FILES (X86)\MICROSOFT VISUAL STUDIO 10.0\VC\INCLUDE\STREAMBUF
C:\PROGRAM FILES (X86)\MICROSOFT VISUAL STUDIO 10.0\VC\INCLUDE\XIOSBASE
C:\PROGRAM FILES (X86)\MICROSOFT VISUAL STUDIO 10.0\VC\INCLUDE\XLOCALE
C:\PROGRAM FILES (X86)\MICROSOFT VISUAL STUDIO 10.0\VC\INCLUDE\CSTRING
C:\PROGRAM FILES (X86)\MICROSOFT VISUAL STUDIO 10.0\VC\INCLUDE\STRING.H
C:\PROGRAM FILES (X86)\MICROSOFT VISUAL STUDIO 10.0\VC\INCLUDE\STDEXCEPT
C:\PROGRAM FILES (X86)\MICROSOFT VISUAL STUDIO 10.0\VC\INCLUDE\EXCEPTION
C:\PROGRAM FILES (X86)\MICROSOFT VISUAL STUDIO 10.0\VC\INCLUDE\XSTDDEF
C:\PROGRAM FILES (X86)\MICROSOFT VISUAL STUDIO 10.0\VC\INCLUDE\CSTDDEF
C:\PROGRAM FILES (X86)\MICROSOFT VISUAL STUDIO 10.0\VC\INCLUDE\STDDEF.H
C:\PROGRAM FILES (X86)\MICROSOFT VISUAL STUDIO 10.0\VC\INCLUDE\EH.H
C:\PROGRAM FILES (X86)\MICROSOFT VISUAL STUDIO 10.0\VC\INCLUDE\MALLOC.H
C:\PROGRAM FILES (X86)\MICROSOFT VISUAL STUDIO 10.0\VC\INCLUDE\XSTRING
C:\PROGRAM FILES (X86)\MICROSOFT VISUAL STUDIO 10.0\VC\INCLUDE\XMEMORY
C:\PROGRAM FILES (X86)\MICROSOFT VISUAL STUDIO 10.0\VC\INCLUDE\NEW
C:\PROGRAM FILES (X86)\MICROSOFT VISUAL STUDIO 10.0\VC\INCLUDE\XUTILITY
C:\PROGRAM FILES (X86)\MICROSOFT VISUAL STUDIO 10.0\VC\INCLUDE\UTILITY
C:\PROGRAM FILES (X86)\MICROSOFT VISUAL STUDIO 10.0\VC\INCLUDE\IOSFWD
C:\PROGRAM FILES (X86)\MICROSOFT VISUAL STUDIO 10.0\VC\INCLUDE\CWCHAR
C:\PROGRAM FILES (X86)\MICROSOFT VISUAL STUDIO 10.0\VC\INCLUDE\WCHAR.H
C:\PROGRAM FILES (X86)\MICROSOFT VISUAL STUDIO 10.0\VC\INCLUDE\WTIME.INL
C:\PROGRAM FILES (X86)\MICROSOFT VISUAL STUDIO 10.0\VC\INCLUDE\CRTDBG.H
C:\PROGRAM FILES (X86)\MICROSOFT VISUAL STUDIO 10.0\VC\INCLUDE\TYPE_TRAITS
C:\PROGRAM FILES (X86)\MICROSOFT VISUAL STUDIO 10.0\VC\INCLUDE\LIMITS
C:\PROGRAM FILES (X86)\MICROSOFT VISUAL STUDIO 10.0\VC\INCLUDE\YMATH.H
C:\PROGRAM FILES (X86)\MICROSOFT VISUAL STUDIO 10.0\VC\INCLUDE\CFLOAT
C:\PROGRAM FILES (X86)\MICROSOFT VISUAL STUDIO 10.0\VC\INCLUDE\FLOAT.H
C:\PROGRAM FILES (X86)\MICROSOFT VISUAL STUDIO 10.0\VC\INCLUDE\CRTWRN.H
C:\PROGRAM FILES (X86)\MICROSOFT VISUAL STUDIO 10.0\VC\INCLUDE\XTR1COMMON
C:\PROGRAM FILES (X86)\MICROSOFT VISUAL STUDIO 10.0\VC\INCLUDE\XFWRAP
C:\PROGRAM FILES (X86)\MICROSOFT VISUAL STUDIO 10.0\VC\INCLUDE\XFWRAP1
C:\PROGRAM FILES (X86)\MICROSOFT VISUAL STUDIO 10.0\VC\INCLUDE\XXTYPE_TRAITS
C:\PROGRAM FILES (X86)\MICROSOFT VISUAL STUDIO 10.0\VC\INCLUDE\TYPEINFO
C:\PROGRAM FILES (X86)\MICROSOFT VISUAL STUDIO 10.0\VC\INCLUDE\XLOCINFO
C:\PROGRAM FILES (X86)\MICROSOFT VISUAL STUDIO 10.0\VC\INCLUDE\XLOCINFO.H
C:\PROGRAM FILES (X86)\MICROSOFT VISUAL STUDIO 10.0\VC\INCLUDE\CTYPE.H
C:\PROGRAM FILES (X86)\MICROSOFT VISUAL STUDIO 10.0\VC\INCLUDE\LOCALE.H
C:\PROGRAM FILES (X86)\MICROSOFT VISUAL STUDIO 10.0\VC\INCLUDE\XDEBUG
C:\PROGRAM FILES (X86)\MICROSOFT VISUAL STUDIO 10.0\VC\INCLUDE\SYSTEM_ERROR
C:\PROGRAM FILES (X86)\MICROSOFT VISUAL STUDIO 10.0\VC\INCLUDE\CERRNO
C:\PROGRAM FILES (X86)\MICROSOFT VISUAL STUDIO 10.0\VC\INCLUDE\ERRNO.H
C:\PROGRAM FILES (X86)\MICROSOFT VISUAL STUDIO 10.0\VC\INCLUDE\SHARE.H
C:\USERS\DONALD12\DESKTOP\ALLEGRO-4.4.2-MSVC-10.0\INCLUDE\ALLEGRO.H
C:\USERS\DONALD12\DESKTOP\ALLEGRO-4.4.2-MSVC-10.0\INCLUDE\ALLEGRO\BASE.H
C:\PROGRAM FILES (X86)\MICROSOFT VISUAL STUDIO 10.0\VC\INCLUDE\STDARG.H
C:\PROGRAM FILES (X86)\MICROSOFT VISUAL STUDIO 10.0\VC\INCLUDE\TIME.H
C:\PROGRAM FILES (X86)\MICROSOFT VISUAL STUDIO 10.0\VC\INCLUDE\TIME.INL
C:\USERS\DONALD12\DESKTOP\ALLEGRO-4.4.2-MSVC-10.0\INCLUDE\ALLEGRO\INTERNAL\ALCONFIG.H
C:\USERS\DONALD12\DESKTOP\ALLEGRO-4.4.2-MSVC-10.0\INCLUDE\ALLEGRO\PLATFORM\ALPLATF.H
C:\USERS\DONALD12\DESKTOP\ALLEGRO-4.4.2-MSVC-10.0\INCLUDE\ALLEGRO\PLATFORM\ALMSVC.H
C:\PROGRAM FILES (X86)\MICROSOFT VISUAL STUDIO 10.0\VC\INCLUDE\IO.H
C:\PROGRAM FILES (X86)\MICROSOFT VISUAL STUDIO 10.0\VC\INCLUDE\FCNTL.H
C:\PROGRAM FILES (X86)\MICROSOFT VISUAL STUDIO 10.0\VC\INCLUDE\DIRECT.H
C:\USERS\DONALD12\DESKTOP\ALLEGRO-4.4.2-MSVC-10.0\INCLUDE\ALLEGRO\PLATFORM\ASTDINT.H
C:\USERS\DONALD12\DESKTOP\ALLEGRO-4.4.2-MSVC-10.0\INCLUDE\ALLEGRO\SYSTEM.H
C:\USERS\DONALD12\DESKTOP\ALLEGRO-4.4.2-MSVC-10.0\INCLUDE\ALLEGRO\UNICODE.H
C:\USERS\DONALD12\DESKTOP\ALLEGRO-4.4.2-MSVC-10.0\INCLUDE\ALLEGRO\CONFIG.H
C:\USERS\DONALD12\DESKTOP\ALLEGRO-4.4.2-MSVC-10.0\INCLUDE\ALLEGRO\INLINE\SYSTEM.INL
C:\USERS\DONALD12\DESKTOP\ALLEGRO-4.4.2-MSVC-10.0\INCLUDE\ALLEGRO\DEBUG.H
C:\USERS\DONALD12\DESKTOP\ALLEGRO-4.4.2-MSVC-10.0\INCLUDE\ALLEGRO\MOUSE.H
C:\USERS\DONALD12\DESKTOP\ALLEGRO-4.4.2-MSVC-10.0\INCLUDE\ALLEGRO\TIMER.H
C:\USERS\DONALD12\DESKTOP\ALLEGRO-4.4.2-MSVC-10.0\INCLUDE\ALLEGRO\KEYBOARD.H
C:\USERS\DONALD12\DESKTOP\ALLEGRO-4.4.2-MSVC-10.0\INCLUDE\ALLEGRO\JOYSTICK.H
C:\USERS\DONALD12\DESKTOP\ALLEGRO-4.4.2-MSVC-10.0\INCLUDE\ALLEGRO\PALETTE.H
C:\USERS\DONALD12\DESKTOP\ALLEGRO-4.4.2-MSVC-10.0\INCLUDE\ALLEGRO\GFX.H
C:\USERS\DONALD12\DESKTOP\ALLEGRO-4.4.2-MSVC-10.0\INCLUDE\ALLEGRO\3D.H
C:\USERS\DONALD12\DESKTOP\ALLEGRO-4.4.2-MSVC-10.0\INCLUDE\ALLEGRO\FIXED.H
C:\USERS\DONALD12\DESKTOP\ALLEGRO-4.4.2-MSVC-10.0\INCLUDE\ALLEGRO\INLINE\GFX.INL
C:\USERS\DONALD12\DESKTOP\ALLEGRO-4.4.2-MSVC-10.0\INCLUDE\ALLEGRO\INLINE\ASM.INL
C:\USERS\DONALD12\DESKTOP\ALLEGRO-4.4.2-MSVC-10.0\INCLUDE\ALLEGRO\COLOR.H
C:\USERS\DONALD12\DESKTOP\ALLEGRO-4.4.2-MSVC-10.0\INCLUDE\ALLEGRO\INLINE\COLOR.INL
C:\USERS\DONALD12\DESKTOP\ALLEGRO-4.4.2-MSVC-10.0\INCLUDE\ALLEGRO\DRAW.H
C:\USERS\DONALD12\DESKTOP\ALLEGRO-4.4.2-MSVC-10.0\INCLUDE\ALLEGRO\INLINE\DRAW.INL
C:\USERS\DONALD12\DESKTOP\ALLEGRO-4.4.2-MSVC-10.0\INCLUDE\ALLEGRO\RLE.H
C:\USERS\DONALD12\DESKTOP\ALLEGRO-4.4.2-MSVC-10.0\INCLUDE\ALLEGRO\INLINE\RLE.INL
C:\USERS\DONALD12\DESKTOP\ALLEGRO-4.4.2-MSVC-10.0\INCLUDE\ALLEGRO\COMPILED.H
C:\USERS\DONALD12\DESKTOP\ALLEGRO-4.4.2-MSVC-10.0\INCLUDE\ALLEGRO\TEXT.H
C:\USERS\DONALD12\DESKTOP\ALLEGRO-4.4.2-MSVC-10.0\INCLUDE\ALLEGRO\FONT.H
C:\USERS\DONALD12\DESKTOP\ALLEGRO-4.4.2-MSVC-10.0\INCLUDE\ALLEGRO\FLI.H
C:\USERS\DONALD12\DESKTOP\ALLEGRO-4.4.2-MSVC-10.0\INCLUDE\ALLEGRO\GUI.H
C:\USERS\DONALD12\DESKTOP\ALLEGRO-4.4.2-MSVC-10.0\INCLUDE\ALLEGRO\SOUND.H
C:\USERS\DONALD12\DESKTOP\ALLEGRO-4.4.2-MSVC-10.0\INCLUDE\ALLEGRO\DIGI.H
C:\USERS\DONALD12\DESKTOP\ALLEGRO-4.4.2-MSVC-10.0\INCLUDE\ALLEGRO\STREAM.H
C:\USERS\DONALD12\DESKTOP\ALLEGRO-4.4.2-MSVC-10.0\INCLUDE\ALLEGRO\MIDI.H
C:\USERS\DONALD12\DESKTOP\ALLEGRO-4.4.2-MSVC-10.0\INCLUDE\ALLEGRO\FILE.H
C:\USERS\DONALD12\DESKTOP\ALLEGRO-4.4.2-MSVC-10.0\INCLUDE\ALLEGRO\LZSS.H
C:\USERS\DONALD12\DESKTOP\ALLEGRO-4.4.2-MSVC-10.0\INCLUDE\ALLEGRO\DATAFILE.H
C:\USERS\DONALD12\DESKTOP\ALLEGRO-4.4.2-MSVC-10.0\INCLUDE\ALLEGRO\FMATHS.H
C:\USERS\DONALD12\DESKTOP\ALLEGRO-4.4.2-MSVC-10.0\INCLUDE\ALLEGRO\INLINE\FMATHS.INL
C:\USERS\DONALD12\DESKTOP\ALLEGRO-4.4.2-MSVC-10.0\INCLUDE\ALLEGRO\MATRIX.H
C:\USERS\DONALD12\DESKTOP\ALLEGRO-4.4.2-MSVC-10.0\INCLUDE\ALLEGRO\INLINE\MATRIX.INL
C:\USERS\DONALD12\DESKTOP\ALLEGRO-4.4.2-MSVC-10.0\INCLUDE\ALLEGRO\QUAT.H
C:\USERS\DONALD12\DESKTOP\ALLEGRO-4.4.2-MSVC-10.0\INCLUDE\ALLEGRO\3DMATHS.H
C:\USERS\DONALD12\DESKTOP\ALLEGRO-4.4.2-MSVC-10.0\INCLUDE\ALLEGRO\INLINE\3DMATHS.INL
C:\USERS\DONALD12\DESKTOP\ALLEGRO-4.4.2-MSVC-10.0\INCLUDE\ALLEGRO\ALCOMPAT.H
C:\USERS\DONALD12\DESKTOP\ALLEGRO-4.4.2-MSVC-10.0\INCLUDE\ALLEGRO\FIX.H
C:\USERS\DONALD12\DESKTOP\ALLEGRO-4.4.2-MSVC-10.0\INCLUDE\ALLEGRO\INLINE\FIX.INL
C:\USERS\DONALD12\DESKTOP\ALLEGRO-4.4.2-MSVC-10.0\INCLUDE\ALLEGRO\PLATFORM\ALWIN.H
C:\USERS\DONALD12\DESKTOP\DOCUMENTS\PLAYER.H
C:\USERS\DONALD12\DESKTOP\DOCUMENTS\BULLET.H
C:\USERS\DONALD12\DESKTOP\DOCUMENTS\INVADER.H
C:\USERS\DONALD12\DESKTOP\DOCUMENTS\DESTROYED.H
C:\USERS\DONALD12\DESKTOP\DOCUMENTS\BACKGROUND.H
C:\PROGRAM FILES (X86)\MICROSOFT VISUAL STUDIO 10.0\VC\BIN\1033\CLUI.DLL
C:\WINDOWS\GLOBALIZATION\SORTING\SORTDEFAULT.NLS
C:\WINDOWS\SYSTEM32\TZRES.DLL
^C:\USERS\DONALD12\DESKTOP\DOCUMENTS\INVADER.CPP
C:\USERS\DONALD12\DESKTOP\DOCUMENTS\INVADER.H
C:\USERS\DONALD12\DESKTOP\ALLEGRO-4.4.2-MSVC-10.0\INCLUDE\ALLEGRO.H
C:\USERS\DONALD12\DESKTOP\ALLEGRO-4.4.2-MSVC-10.0\INCLUDE\ALLEGRO\BASE.H
C:\PROGRAM FILES (X86)\MICROSOFT VISUAL STUDIO 10.0\VC\INCLUDE\ERRNO.H
C:\PROGRAM FILES (X86)\MICROSOFT VISUAL STUDIO 10.0\VC\INCLUDE\CRTDEFS.H
C:\PROGRAM FILES (X86)\MICROSOFT VISUAL STUDIO 10.0\VC\INCLUDE\SAL.H
C:\PROGRAM FILES (X86)\MICROSOFT VISUAL STUDIO 10.0\VC\INCLUDE\CODEANALYSIS\SOURCEANNOTATIONS.H
C:\PROGRAM FILES (X86)\MICROSOFT VISUAL STUDIO 10.0\VC\INCLUDE\VADEFS.H
C:\PROGRAM FILES (X86)\MICROSOFT VISUAL STUDIO 10.0\VC\INCLUDE\LIMITS.H
C:\PROGRAM FILES (X86)\MICROSOFT VISUAL STUDIO 10.0\VC\INCLUDE\STDARG.H
C:\PROGRAM FILES (X86)\MICROSOFT VISUAL STUDIO 10.0\VC\INCLUDE\STDDEF.H
C:\PROGRAM FILES (X86)\MICROSOFT VISUAL STUDIO 10.0\VC\INCLUDE\STDLIB.H
C:\PROGRAM FILES (X86)\MICROSOFT VISUAL STUDIO 10.0\VC\INCLUDE\TIME.H
C:\PROGRAM FILES (X86)\MICROSOFT VISUAL STUDIO 10.0\VC\INCLUDE\WTIME.INL
C:\PROGRAM FILES (X86)\MICROSOFT VISUAL STUDIO 10.0\VC\INCLUDE\TIME.INL
C:\PROGRAM FILES (X86)\MICROSOFT VISUAL STUDIO 10.0\VC\INCLUDE\STRING.H
C:\USERS\DONALD12\DESKTOP\ALLEGRO-4.4.2-MSVC-10.0\INCLUDE\ALLEGRO\INTERNAL\ALCONFIG.H
C:\USERS\DONALD12\DESKTOP\ALLEGRO-4.4.2-MSVC-10.0\INCLUDE\ALLEGRO\PLATFORM\ALPLATF.H
C:\USERS\DONALD12\DESKTOP\ALLEGRO-4.4.2-MSVC-10.0\INCLUDE\ALLEGRO\PLATFORM\ALMSVC.H
C:\PROGRAM FILES (X86)\MICROSOFT VISUAL STUDIO 10.0\VC\INCLUDE\IO.H
C:\PROGRAM FILES (X86)\MICROSOFT VISUAL STUDIO 10.0\VC\INCLUDE\FCNTL.H
C:\PROGRAM FILES (X86)\MICROSOFT VISUAL STUDIO 10.0\VC\INCLUDE\DIRECT.H
C:\PROGRAM FILES (X86)\MICROSOFT VISUAL STUDIO 10.0\VC\INCLUDE\MALLOC.H
C:\USERS\DONALD12\DESKTOP\ALLEGRO-4.4.2-MSVC-10.0\INCLUDE\ALLEGRO\PLATFORM\ASTDINT.H
C:\USERS\DONALD12\DESKTOP\ALLEGRO-4.4.2-MSVC-10.0\INCLUDE\ALLEGRO\SYSTEM.H
C:\USERS\DONALD12\DESKTOP\ALLEGRO-4.4.2-MSVC-10.0\INCLUDE\ALLEGRO\UNICODE.H
C:\USERS\DONALD12\DESKTOP\ALLEGRO-4.4.2-MSVC-10.0\INCLUDE\ALLEGRO\CONFIG.H
C:\USERS\DONALD12\DESKTOP\ALLEGRO-4.4.2-MSVC-10.0\INCLUDE\ALLEGRO\INLINE\SYSTEM.INL
C:\USERS\DONALD12\DESKTOP\ALLEGRO-4.4.2-MSVC-10.0\INCLUDE\ALLEGRO\DEBUG.H
C:\USERS\DONALD12\DESKTOP\ALLEGRO-4.4.2-MSVC-10.0\INCLUDE\ALLEGRO\MOUSE.H
C:\USERS\DONALD12\DESKTOP\ALLEGRO-4.4.2-MSVC-10.0\INCLUDE\ALLEGRO\TIMER.H
C:\USERS\DONALD12\DESKTOP\ALLEGRO-4.4.2-MSVC-10.0\INCLUDE\ALLEGRO\KEYBOARD.H
C:\USERS\DONALD12\DESKTOP\ALLEGRO-4.4.2-MSVC-10.0\INCLUDE\ALLEGRO\JOYSTICK.H
C:\USERS\DONALD12\DESKTOP\ALLEGRO-4.4.2-MSVC-10.0\INCLUDE\ALLEGRO\PALETTE.H
C:\USERS\DONALD12\DESKTOP\ALLEGRO-4.4.2-MSVC-10.0\INCLUDE\ALLEGRO\GFX.H
C:\USERS\DONALD12\DESKTOP\ALLEGRO-4.4.2-MSVC-10.0\INCLUDE\ALLEGRO\3D.H
C:\USERS\DONALD12\DESKTOP\ALLEGRO-4.4.2-MSVC-10.0\INCLUDE\ALLEGRO\FIXED.H
C:\USERS\DONALD12\DESKTOP\ALLEGRO-4.4.2-MSVC-10.0\INCLUDE\ALLEGRO\INLINE\GFX.INL
C:\USERS\DONALD12\DESKTOP\ALLEGRO-4.4.2-MSVC-10.0\INCLUDE\ALLEGRO\INLINE\ASM.INL
C:\USERS\DONALD12\DESKTOP\ALLEGRO-4.4.2-MSVC-10.0\INCLUDE\ALLEGRO\COLOR.H
C:\USERS\DONALD12\DESKTOP\ALLEGRO-4.4.2-MSVC-10.0\INCLUDE\ALLEGRO\INLINE\COLOR.INL
C:\USERS\DONALD12\DESKTOP\ALLEGRO-4.4.2-MSVC-10.0\INCLUDE\ALLEGRO\DRAW.H
C:\USERS\DONALD12\DESKTOP\ALLEGRO-4.4.2-MSVC-10.0\INCLUDE\ALLEGRO\INLINE\DRAW.INL
C:\USERS\DONALD12\DESKTOP\ALLEGRO-4.4.2-MSVC-10.0\INCLUDE\ALLEGRO\RLE.H
C:\USERS\DONALD12\DESKTOP\ALLEGRO-4.4.2-MSVC-10.0\INCLUDE\ALLEGRO\INLINE\RLE.INL
C:\USERS\DONALD12\DESKTOP\ALLEGRO-4.4.2-MSVC-10.0\INCLUDE\ALLEGRO\COMPILED.H
C:\USERS\DONALD12\DESKTOP\ALLEGRO-4.4.2-MSVC-10.0\INCLUDE\ALLEGRO\TEXT.H
C:\USERS\DONALD12\DESKTOP\ALLEGRO-4.4.2-MSVC-10.0\INCLUDE\ALLEGRO\FONT.H
C:\USERS\DONALD12\DESKTOP\ALLEGRO-4.4.2-MSVC-10.0\INCLUDE\ALLEGRO\FLI.H
C:\USERS\DONALD12\DESKTOP\ALLEGRO-4.4.2-MSVC-10.0\INCLUDE\ALLEGRO\GUI.H
C:\USERS\DONALD12\DESKTOP\ALLEGRO-4.4.2-MSVC-10.0\INCLUDE\ALLEGRO\SOUND.H
C:\USERS\DONALD12\DESKTOP\ALLEGRO-4.4.2-MSVC-10.0\INCLUDE\ALLEGRO\DIGI.H
C:\USERS\DONALD12\DESKTOP\ALLEGRO-4.4.2-MSVC-10.0\INCLUDE\ALLEGRO\STREAM.H
C:\USERS\DONALD12\DESKTOP\ALLEGRO-4.4.2-MSVC-10.0\INCLUDE\ALLEGRO\MIDI.H
C:\USERS\DONALD12\DESKTOP\ALLEGRO-4.4.2-MSVC-10.0\INCLUDE\ALLEGRO\FILE.H
C:\USERS\DONALD12\DESKTOP\ALLEGRO-4.4.2-MSVC-10.0\INCLUDE\ALLEGRO\LZSS.H
C:\USERS\DONALD12\DESKTOP\ALLEGRO-4.4.2-MSVC-10.0\INCLUDE\ALLEGRO\DATAFILE.H
C:\USERS\DONALD12\DESKTOP\ALLEGRO-4.4.2-MSVC-10.0\INCLUDE\ALLEGRO\FMATHS.H
C:\USERS\DONALD12\DESKTOP\ALLEGRO-4.4.2-MSVC-10.0\INCLUDE\ALLEGRO\INLINE\FMATHS.INL
C:\USERS\DONALD12\DESKTOP\ALLEGRO-4.4.2-MSVC-10.0\INCLUDE\ALLEGRO\MATRIX.H
C:\USERS\DONALD12\DESKTOP\ALLEGRO-4.4.2-MSVC-10.0\INCLUDE\ALLEGRO\INLINE\MATRIX.INL
C:\USERS\DONALD12\DESKTOP\ALLEGRO-4.4.2-MSVC-10.0\INCLUDE\ALLEGRO\QUAT.H
C:\USERS\DONALD12\DESKTOP\ALLEGRO-4.4.2-MSVC-10.0\INCLUDE\ALLEGRO\3DMATHS.H
C:\USERS\DONALD12\DESKTOP\ALLEGRO-4.4.2-MSVC-10.0\INCLUDE\ALLEGRO\INLINE\3DMATHS.INL
C:\USERS\DONALD12\DESKTOP\ALLEGRO-4.4.2-MSVC-10.0\INCLUDE\ALLEGRO\ALCOMPAT.H
C:\USERS\DONALD12\DESKTOP\ALLEGRO-4.4.2-MSVC-10.0\INCLUDE\ALLEGRO\FIX.H
C:\USERS\DONALD12\DESKTOP\ALLEGRO-4.4.2-MSVC-10.0\INCLUDE\ALLEGRO\INLINE\FIX.INL
C:\USERS\DONALD12\DESKTOP\ALLEGRO-4.4.2-MSVC-10.0\INCLUDE\ALLEGRO\PLATFORM\ALWIN.H
C:\USERS\DONALD12\DESKTOP\DOCUMENTS\BULLET.H
C:\USERS\DONALD12\DESKTOP\DOCUMENTS\PLAYER.H
C:\USERS\DONALD12\DESKTOP\DOCUMENTS\DESTROYED.H
^C:\USERS\DONALD12\DESKTOP\DOCUMENTS\DESTROYED.CPP
C:\USERS\DONALD12\DESKTOP\DOCUMENTS\DESTROYED.H
C:\USERS\DONALD12\DESKTOP\ALLEGRO-4.4.2-MSVC-10.0\INCLUDE\ALLEGRO.H
C:\USERS\DONALD12\DESKTOP\ALLEGRO-4.4.2-MSVC-10.0\INCLUDE\ALLEGRO\BASE.H
C:\PROGRAM FILES (X86)\MICROSOFT VISUAL STUDIO 10.0\VC\INCLUDE\ERRNO.H
C:\PROGRAM FILES (X86)\MICROSOFT VISUAL STUDIO 10.0\VC\INCLUDE\CRTDEFS.H
C:\PROGRAM FILES (X86)\MICROSOFT VISUAL STUDIO 10.0\VC\INCLUDE\SAL.H
C:\PROGRAM FILES (X86)\MICROSOFT VISUAL STUDIO 10.0\VC\INCLUDE\CODEANALYSIS\SOURCEANNOTATIONS.H
C:\PROGRAM FILES (X86)\MICROSOFT VISUAL STUDIO 10.0\VC\INCLUDE\VADEFS.H
C:\PROGRAM FILES (X86)\MICROSOFT VISUAL STUDIO 10.0\VC\INCLUDE\LIMITS.H
C:\PROGRAM FILES (X86)\MICROSOFT VISUAL STUDIO 10.0\VC\INCLUDE\STDARG.H
C:\PROGRAM FILES (X86)\MICROSOFT VISUAL STUDIO 10.0\VC\INCLUDE\STDDEF.H
C:\PROGRAM FILES (X86)\MICROSOFT VISUAL STUDIO 10.0\VC\INCLUDE\STDLIB.H
C:\PROGRAM FILES (X86)\MICROSOFT VISUAL STUDIO 10.0\VC\INCLUDE\TIME.H
C:\PROGRAM FILES (X86)\MICROSOFT VISUAL STUDIO 10.0\VC\INCLUDE\WTIME.INL
C:\PROGRAM FILES (X86)\MICROSOFT VISUAL STUDIO 10.0\VC\INCLUDE\TIME.INL
C:\PROGRAM FILES (X86)\MICROSOFT VISUAL STUDIO 10.0\VC\INCLUDE\STRING.H
C:\USERS\DONALD12\DESKTOP\ALLEGRO-4.4.2-MSVC-10.0\INCLUDE\ALLEGRO\INTERNAL\ALCONFIG.H
C:\USERS\DONALD12\DESKTOP\ALLEGRO-4.4.2-MSVC-10.0\INCLUDE\ALLEGRO\PLATFORM\ALPLATF.H
C:\USERS\DONALD12\DESKTOP\ALLEGRO-4.4.2-MSVC-10.0\INCLUDE\ALLEGRO\PLATFORM\ALMSVC.H
C:\PROGRAM FILES (X86)\MICROSOFT VISUAL STUDIO 10.0\VC\INCLUDE\IO.H
C:\PROGRAM FILES (X86)\MICROSOFT VISUAL STUDIO 10.0\VC\INCLUDE\FCNTL.H
C:\PROGRAM FILES (X86)\MICROSOFT VISUAL STUDIO 10.0\VC\INCLUDE\DIRECT.H
C:\PROGRAM FILES (X86)\MICROSOFT VISUAL STUDIO 10.0\VC\INCLUDE\MALLOC.H
C:\USERS\DONALD12\DESKTOP\ALLEGRO-4.4.2-MSVC-10.0\INCLUDE\ALLEGRO\PLATFORM\ASTDINT.H
C:\USERS\DONALD12\DESKTOP\ALLEGRO-4.4.2-MSVC-10.0\INCLUDE\ALLEGRO\SYSTEM.H
C:\USERS\DONALD12\DESKTOP\ALLEGRO-4.4.2-MSVC-10.0\INCLUDE\ALLEGRO\UNICODE.H
C:\USERS\DONALD12\DESKTOP\ALLEGRO-4.4.2-MSVC-10.0\INCLUDE\ALLEGRO\CONFIG.H
C:\USERS\DONALD12\DESKTOP\ALLEGRO-4.4.2-MSVC-10.0\INCLUDE\ALLEGRO\INLINE\SYSTEM.INL
C:\USERS\DONALD12\DESKTOP\ALLEGRO-4.4.2-MSVC-10.0\INCLUDE\ALLEGRO\DEBUG.H
C:\USERS\DONALD12\DESKTOP\ALLEGRO-4.4.2-MSVC-10.0\INCLUDE\ALLEGRO\MOUSE.H
C:\USERS\DONALD12\DESKTOP\ALLEGRO-4.4.2-MSVC-10.0\INCLUDE\ALLEGRO\TIMER.H
C:\USERS\DONALD12\DESKTOP\ALLEGRO-4.4.2-MSVC-10.0\INCLUDE\ALLEGRO\KEYBOARD.H
C:\USERS\DONALD12\DESKTOP\ALLEGRO-4.4.2-MSVC-10.0\INCLUDE\ALLEGRO\JOYSTICK.H
C:\USERS\DONALD12\DESKTOP\ALLEGRO-4.4.2-MSVC-10.0\INCLUDE\ALLEGRO\PALETTE.H
C:\USERS\DONALD12\DESKTOP\ALLEGRO-4.4.2-MSVC-10.0\INCLUDE\ALLEGRO\GFX.H
C:\USERS\DONALD12\DESKTOP\ALLEGRO-4.4.2-MSVC-10.0\INCLUDE\ALLEGRO\3D.H
C:\USERS\DONALD12\DESKTOP\ALLEGRO-4.4.2-MSVC-10.0\INCLUDE\ALLEGRO\FIXED.H
C:\USERS\DONALD12\DESKTOP\ALLEGRO-4.4.2-MSVC-10.0\INCLUDE\ALLEGRO\INLINE\GFX.INL
C:\USERS\DONALD12\DESKTOP\ALLEGRO-4.4.2-MSVC-10.0\INCLUDE\ALLEGRO\INLINE\ASM.INL
C:\USERS\DONALD12\DESKTOP\ALLEGRO-4.4.2-MSVC-10.0\INCLUDE\ALLEGRO\COLOR.H
C:\USERS\DONALD12\DESKTOP\ALLEGRO-4.4.2-MSVC-10.0\INCLUDE\ALLEGRO\INLINE\COLOR.INL
C:\USERS\DONALD12\DESKTOP\ALLEGRO-4.4.2-MSVC-10.0\INCLUDE\ALLEGRO\DRAW.H
C:\USERS\DONALD12\DESKTOP\ALLEGRO-4.4.2-MSVC-10.0\INCLUDE\ALLEGRO\INLINE\DRAW.INL
C:\USERS\DONALD12\DESKTOP\ALLEGRO-4.4.2-MSVC-10.0\INCLUDE\ALLEGRO\RLE.H
C:\USERS\DONALD12\DESKTOP\ALLEGRO-4.4.2-MSVC-10.0\INCLUDE\ALLEGRO\INLINE\RLE.INL
C:\USERS\DONALD12\DESKTOP\ALLEGRO-4.4.2-MSVC-10.0\INCLUDE\ALLEGRO\COMPILED.H
C:\USERS\DONALD12\DESKTOP\ALLEGRO-4.4.2-MSVC-10.0\INCLUDE\ALLEGRO\TEXT.H
C:\USERS\DONALD12\DESKTOP\ALLEGRO-4.4.2-MSVC-10.0\INCLUDE\ALLEGRO\FONT.H
C:\USERS\DONALD12\DESKTOP\ALLEGRO-4.4.2-MSVC-10.0\INCLUDE\ALLEGRO\FLI.H
C:\USERS\DONALD12\DESKTOP\ALLEGRO-4.4.2-MSVC-10.0\INCLUDE\ALLEGRO\GUI.H
C:\USERS\DONALD12\DESKTOP\ALLEGRO-4.4.2-MSVC-10.0\INCLUDE\ALLEGRO\SOUND.H
C:\USERS\DONALD12\DESKTOP\ALLEGRO-4.4.2-MSVC-10.0\INCLUDE\ALLEGRO\DIGI.H
C:\USERS\DONALD12\DESKTOP\ALLEGRO-4.4.2-MSVC-10.0\INCLUDE\ALLEGRO\STREAM.H
C:\USERS\DONALD12\DESKTOP\ALLEGRO-4.4.2-MSVC-10.0\INCLUDE\ALLEGRO\MIDI.H
C:\USERS\DONALD12\DESKTOP\ALLEGRO-4.4.2-MSVC-10.0\INCLUDE\ALLEGRO\FILE.H
C:\USERS\DONALD12\DESKTOP\ALLEGRO-4.4.2-MSVC-10.0\INCLUDE\ALLEGRO\LZSS.H
C:\USERS\DONALD12\DESKTOP\ALLEGRO-4.4.2-MSVC-10.0\INCLUDE\ALLEGRO\DATAFILE.H
C:\USERS\DONALD12\DESKTOP\ALLEGRO-4.4.2-MSVC-10.0\INCLUDE\ALLEGRO\FMATHS.H
C:\USERS\DONALD12\DESKTOP\ALLEGRO-4.4.2-MSVC-10.0\INCLUDE\ALLEGRO\INLINE\FMATHS.INL
C:\USERS\DONALD12\DESKTOP\ALLEGRO-4.4.2-MSVC-10.0\INCLUDE\ALLEGRO\MATRIX.H
C:\USERS\DONALD12\DESKTOP\ALLEGRO-4.4.2-MSVC-10.0\INCLUDE\ALLEGRO\INLINE\MATRIX.INL
C:\USERS\DONALD12\DESKTOP\ALLEGRO-4.4.2-MSVC-10.0\INCLUDE\ALLEGRO\QUAT.H
C:\USERS\DONALD12\DESKTOP\ALLEGRO-4.4.2-MSVC-10.0\INCLUDE\ALLEGRO\3DMATHS.H
C:\USERS\DONALD12\DESKTOP\ALLEGRO-4.4.2-MSVC-10.0\INCLUDE\ALLEGRO\INLINE\3DMATHS.INL
C:\USERS\DONALD12\DESKTOP\ALLEGRO-4.4.2-MSVC-10.0\INCLUDE\ALLEGRO\ALCOMPAT.H
C:\USERS\DONALD12\DESKTOP\ALLEGRO-4.4.2-MSVC-10.0\INCLUDE\ALLEGRO\FIX.H
C:\USERS\DONALD12\DESKTOP\ALLEGRO-4.4.2-MSVC-10.0\INCLUDE\ALLEGRO\INLINE\FIX.INL
C:\USERS\DONALD12\DESKTOP\ALLEGRO-4.4.2-MSVC-10.0\INCLUDE\ALLEGRO\PLATFORM\ALWIN.H
^C:\USERS\DONALD12\DESKTOP\DOCUMENTS\BULLET.CPP
C:\USERS\DONALD12\DESKTOP\DOCUMENTS\BULLET.H
C:\USERS\DONALD12\DESKTOP\ALLEGRO-4.4.2-MSVC-10.0\INCLUDE\ALLEGRO.H
C:\USERS\DONALD12\DESKTOP\ALLEGRO-4.4.2-MSVC-10.0\INCLUDE\ALLEGRO\BASE.H
C:\PROGRAM FILES (X86)\MICROSOFT VISUAL STUDIO 10.0\VC\INCLUDE\ERRNO.H
C:\PROGRAM FILES (X86)\MICROSOFT VISUAL STUDIO 10.0\VC\INCLUDE\CRTDEFS.H
C:\PROGRAM FILES (X86)\MICROSOFT VISUAL STUDIO 10.0\VC\INCLUDE\SAL.H
C:\PROGRAM FILES (X86)\MICROSOFT VISUAL STUDIO 10.0\VC\INCLUDE\CODEANALYSIS\SOURCEANNOTATIONS.H
C:\PROGRAM FILES (X86)\MICROSOFT VISUAL STUDIO 10.0\VC\INCLUDE\VADEFS.H
C:\PROGRAM FILES (X86)\MICROSOFT VISUAL STUDIO 10.0\VC\INCLUDE\LIMITS.H
C:\PROGRAM FILES (X86)\MICROSOFT VISUAL STUDIO 10.0\VC\INCLUDE\STDARG.H
C:\PROGRAM FILES (X86)\MICROSOFT VISUAL STUDIO 10.0\VC\INCLUDE\STDDEF.H
C:\PROGRAM FILES (X86)\MICROSOFT VISUAL STUDIO 10.0\VC\INCLUDE\STDLIB.H
C:\PROGRAM FILES (X86)\MICROSOFT VISUAL STUDIO 10.0\VC\INCLUDE\TIME.H
C:\PROGRAM FILES (X86)\MICROSOFT VISUAL STUDIO 10.0\VC\INCLUDE\WTIME.INL
C:\PROGRAM FILES (X86)\MICROSOFT VISUAL STUDIO 10.0\VC\INCLUDE\TIME.INL
C:\PROGRAM FILES (X86)\MICROSOFT VISUAL STUDIO 10.0\VC\INCLUDE\STRING.H
C:\USERS\DONALD12\DESKTOP\ALLEGRO-4.4.2-MSVC-10.0\INCLUDE\ALLEGRO\INTERNAL\ALCONFIG.H
C:\USERS\DONALD12\DESKTOP\ALLEGRO-4.4.2-MSVC-10.0\INCLUDE\ALLEGRO\PLATFORM\ALPLATF.H
C:\USERS\DONALD12\DESKTOP\ALLEGRO-4.4.2-MSVC-10.0\INCLUDE\ALLEGRO\PLATFORM\ALMSVC.H
C:\PROGRAM FILES (X86)\MICROSOFT VISUAL STUDIO 10.0\VC\INCLUDE\IO.H
C:\PROGRAM FILES (X86)\MICROSOFT VISUAL STUDIO 10.0\VC\INCLUDE\FCNTL.H
C:\PROGRAM FILES (X86)\MICROSOFT VISUAL STUDIO 10.0\VC\INCLUDE\DIRECT.H
C:\PROGRAM FILES (X86)\MICROSOFT VISUAL STUDIO 10.0\VC\INCLUDE\MALLOC.H
C:\USERS\DONALD12\DESKTOP\ALLEGRO-4.4.2-MSVC-10.0\INCLUDE\ALLEGRO\PLATFORM\ASTDINT.H
C:\USERS\DONALD12\DESKTOP\ALLEGRO-4.4.2-MSVC-10.0\INCLUDE\ALLEGRO\SYSTEM.H
C:\USERS\DONALD12\DESKTOP\ALLEGRO-4.4.2-MSVC-10.0\INCLUDE\ALLEGRO\UNICODE.H
C:\USERS\DONALD12\DESKTOP\ALLEGRO-4.4.2-MSVC-10.0\INCLUDE\ALLEGRO\CONFIG.H
C:\USERS\DONALD12\DESKTOP\ALLEGRO-4.4.2-MSVC-10.0\INCLUDE\ALLEGRO\INLINE\SYSTEM.INL
C:\USERS\DONALD12\DESKTOP\ALLEGRO-4.4.2-MSVC-10.0\INCLUDE\ALLEGRO\DEBUG.H
C:\USERS\DONALD12\DESKTOP\ALLEGRO-4.4.2-MSVC-10.0\INCLUDE\ALLEGRO\MOUSE.H
C:\USERS\DONALD12\DESKTOP\ALLEGRO-4.4.2-MSVC-10.0\INCLUDE\ALLEGRO\TIMER.H
C:\USERS\DONALD12\DESKTOP\ALLEGRO-4.4.2-MSVC-10.0\INCLUDE\ALLEGRO\KEYBOARD.H
C:\USERS\DONALD12\DESKTOP\ALLEGRO-4.4.2-MSVC-10.0\INCLUDE\ALLEGRO\JOYSTICK.H
C:\USERS\DONALD12\DESKTOP\ALLEGRO-4.4.2-MSVC-10.0\INCLUDE\ALLEGRO\PALETTE.H
C:\USERS\DONALD12\DESKTOP\ALLEGRO-4.4.2-MSVC-10.0\INCLUDE\ALLEGRO\GFX.H
C:\USERS\DONALD12\DESKTOP\ALLEGRO-4.4.2-MSVC-10.0\INCLUDE\ALLEGRO\3D.H
C:\USERS\DONALD12\DESKTOP\ALLEGRO-4.4.2-MSVC-10.0\INCLUDE\ALLEGRO\FIXED.H
C:\USERS\DONALD12\DESKTOP\ALLEGRO-4.4.2-MSVC-10.0\INCLUDE\ALLEGRO\INLINE\GFX.INL
C:\USERS\DONALD12\DESKTOP\ALLEGRO-4.4.2-MSVC-10.0\INCLUDE\ALLEGRO\INLINE\ASM.INL
C:\USERS\DONALD12\DESKTOP\ALLEGRO-4.4.2-MSVC-10.0\INCLUDE\ALLEGRO\COLOR.H
C:\USERS\DONALD12\DESKTOP\ALLEGRO-4.4.2-MSVC-10.0\INCLUDE\ALLEGRO\INLINE\COLOR.INL
C:\USERS\DONALD12\DESKTOP\ALLEGRO-4.4.2-MSVC-10.0\INCLUDE\ALLEGRO\DRAW.H
C:\USERS\DONALD12\DESKTOP\ALLEGRO-4.4.2-MSVC-10.0\INCLUDE\ALLEGRO\INLINE\DRAW.INL
C:\USERS\DONALD12\DESKTOP\ALLEGRO-4.4.2-MSVC-10.0\INCLUDE\ALLEGRO\RLE.H
C:\USERS\DONALD12\DESKTOP\ALLEGRO-4.4.2-MSVC-10.0\INCLUDE\ALLEGRO\INLINE\RLE.INL
C:\USERS\DONALD12\DESKTOP\ALLEGRO-4.4.2-MSVC-10.0\INCLUDE\ALLEGRO\COMPILED.H
C:\USERS\DONALD12\DESKTOP\ALLEGRO-4.4.2-MSVC-10.0\INCLUDE\ALLEGRO\TEXT.H
C:\USERS\DONALD12\DESKTOP\ALLEGRO-4.4.2-MSVC-10.0\INCLUDE\ALLEGRO\FONT.H
C:\USERS\DONALD12\DESKTOP\ALLEGRO-4.4.2-MSVC-10.0\INCLUDE\ALLEGRO\FLI.H
C:\USERS\DONALD12\DESKTOP\ALLEGRO-4.4.2-MSVC-10.0\INCLUDE\ALLEGRO\GUI.H
C:\USERS\DONALD12\DESKTOP\ALLEGRO-4.4.2-MSVC-10.0\INCLUDE\ALLEGRO\SOUND.H
C:\USERS\DONALD12\DESKTOP\ALLEGRO-4.4.2-MSVC-10.0\INCLUDE\ALLEGRO\DIGI.H
C:\USERS\DONALD12\DESKTOP\ALLEGRO-4.4.2-MSVC-10.0\INCLUDE\ALLEGRO\STREAM.H
C:\USERS\DONALD12\DESKTOP\ALLEGRO-4.4.2-MSVC-10.0\INCLUDE\ALLEGRO\MIDI.H
C:\USERS\DONALD12\DESKTOP\ALLEGRO-4.4.2-MSVC-10.0\INCLUDE\ALLEGRO\FILE.H
C:\USERS\DONALD12\DESKTOP\ALLEGRO-4.4.2-MSVC-10.0\INCLUDE\ALLEGRO\LZSS.H
C:\USERS\DONALD12\DESKTOP\ALLEGRO-4.4.2-MSVC-10.0\INCLUDE\ALLEGRO\DATAFILE.H
C:\USERS\DONALD12\DESKTOP\ALLEGRO-4.4.2-MSVC-10.0\INCLUDE\ALLEGRO\FMATHS.H
C:\USERS\DONALD12\DESKTOP\ALLEGRO-4.4.2-MSVC-10.0\INCLUDE\ALLEGRO\INLINE\FMATHS.INL
C:\USERS\DONALD12\DESKTOP\ALLEGRO-4.4.2-MSVC-10.0\INCLUDE\ALLEGRO\MATRIX.H
C:\USERS\DONALD12\DESKTOP\ALLEGRO-4.4.2-MSVC-10.0\INCLUDE\ALLEGRO\INLINE\MATRIX.INL
C:\USERS\DONALD12\DESKTOP\ALLEGRO-4.4.2-MSVC-10.0\INCLUDE\ALLEGRO\QUAT.H
C:\USERS\DONALD12\DESKTOP\ALLEGRO-4.4.2-MSVC-10.0\INCLUDE\ALLEGRO\3DMATHS.H
C:\USERS\DONALD12\DESKTOP\ALLEGRO-4.4.2-MSVC-10.0\INCLUDE\ALLEGRO\INLINE\3DMATHS.INL
C:\USERS\DONALD12\DESKTOP\ALLEGRO-4.4.2-MSVC-10.0\INCLUDE\ALLEGRO\ALCOMPAT.H
C:\USERS\DONALD12\DESKTOP\ALLEGRO-4.4.2-MSVC-10.0\INCLUDE\ALLEGRO\FIX.H
C:\USERS\DONALD12\DESKTOP\ALLEGRO-4.4.2-MSVC-10.0\INCLUDE\ALLEGRO\INLINE\FIX.INL
C:\USERS\DONALD12\DESKTOP\ALLEGRO-4.4.2-MSVC-10.0\INCLUDE\ALLEGRO\PLATFORM\ALWIN.H
^C:\USERS\DONALD12\DESKTOP\DOCUMENTS\BACKGROUND.CPP
C:\USERS\DONALD12\DESKTOP\DOCUMENTS\BACKGROUND.H
C:\USERS\DONALD12\DESKTOP\ALLEGRO-4.4.2-MSVC-10.0\INCLUDE\ALLEGRO.H
C:\USERS\DONALD12\DESKTOP\ALLEGRO-4.4.2-MSVC-10.0\INCLUDE\ALLEGRO\BASE.H
C:\PROGRAM FILES (X86)\MICROSOFT VISUAL STUDIO 10.0\VC\INCLUDE\ERRNO.H
C:\PROGRAM FILES (X86)\MICROSOFT VISUAL STUDIO 10.0\VC\INCLUDE\CRTDEFS.H
C:\PROGRAM FILES (X86)\MICROSOFT VISUAL STUDIO 10.0\VC\INCLUDE\SAL.H
C:\PROGRAM FILES (X86)\MICROSOFT VISUAL STUDIO 10.0\VC\INCLUDE\CODEANALYSIS\SOURCEANNOTATIONS.H
C:\PROGRAM FILES (X86)\MICROSOFT VISUAL STUDIO 10.0\VC\INCLUDE\VADEFS.H
C:\PROGRAM FILES (X86)\MICROSOFT VISUAL STUDIO 10.0\VC\INCLUDE\LIMITS.H
C:\PROGRAM FILES (X86)\MICROSOFT VISUAL STUDIO 10.0\VC\INCLUDE\STDARG.H
C:\PROGRAM FILES (X86)\MICROSOFT VISUAL STUDIO 10.0\VC\INCLUDE\STDDEF.H
C:\PROGRAM FILES (X86)\MICROSOFT VISUAL STUDIO 10.0\VC\INCLUDE\STDLIB.H
C:\PROGRAM FILES (X86)\MICROSOFT VISUAL STUDIO 10.0\VC\INCLUDE\TIME.H
C:\PROGRAM FILES (X86)\MICROSOFT VISUAL STUDIO 10.0\VC\INCLUDE\WTIME.INL
C:\PROGRAM FILES (X86)\MICROSOFT VISUAL STUDIO 10.0\VC\INCLUDE\TIME.INL
C:\PROGRAM FILES (X86)\MICROSOFT VISUAL STUDIO 10.0\VC\INCLUDE\STRING.H
C:\USERS\DONALD12\DESKTOP\ALLEGRO-4.4.2-MSVC-10.0\INCLUDE\ALLEGRO\INTERNAL\ALCONFIG.H
C:\USERS\DONALD12\DESKTOP\ALLEGRO-4.4.2-MSVC-10.0\INCLUDE\ALLEGRO\PLATFORM\ALPLATF.H
C:\USERS\DONALD12\DESKTOP\ALLEGRO-4.4.2-MSVC-10.0\INCLUDE\ALLEGRO\PLATFORM\ALMSVC.H
C:\PROGRAM FILES (X86)\MICROSOFT VISUAL STUDIO 10.0\VC\INCLUDE\IO.H
C:\PROGRAM FILES (X86)\MICROSOFT VISUAL STUDIO 10.0\VC\INCLUDE\FCNTL.H
C:\PROGRAM FILES (X86)\MICROSOFT VISUAL STUDIO 10.0\VC\INCLUDE\DIRECT.H
C:\PROGRAM FILES (X86)\MICROSOFT VISUAL STUDIO 10.0\VC\INCLUDE\MALLOC.H
C:\USERS\DONALD12\DESKTOP\ALLEGRO-4.4.2-MSVC-10.0\INCLUDE\ALLEGRO\PLATFORM\ASTDINT.H
C:\USERS\DONALD12\DESKTOP\ALLEGRO-4.4.2-MSVC-10.0\INCLUDE\ALLEGRO\SYSTEM.H
C:\USERS\DONALD12\DESKTOP\ALLEGRO-4.4.2-MSVC-10.0\INCLUDE\ALLEGRO\UNICODE.H
C:\USERS\DONALD12\DESKTOP\ALLEGRO-4.4.2-MSVC-10.0\INCLUDE\ALLEGRO\CONFIG.H
C:\USERS\DONALD12\DESKTOP\ALLEGRO-4.4.2-MSVC-10.0\INCLUDE\ALLEGRO\INLINE\SYSTEM.INL
C:\USERS\DONALD12\DESKTOP\ALLEGRO-4.4.2-MSVC-10.0\INCLUDE\ALLEGRO\DEBUG.H
C:\USERS\DONALD12\DESKTOP\ALLEGRO-4.4.2-MSVC-10.0\INCLUDE\ALLEGRO\MOUSE.H
C:\USERS\DONALD12\DESKTOP\ALLEGRO-4.4.2-MSVC-10.0\INCLUDE\ALLEGRO\TIMER.H
C:\USERS\DONALD12\DESKTOP\ALLEGRO-4.4.2-MSVC-10.0\INCLUDE\ALLEGRO\KEYBOARD.H
C:\USERS\DONALD12\DESKTOP\ALLEGRO-4.4.2-MSVC-10.0\INCLUDE\ALLEGRO\JOYSTICK.H
C:\USERS\DONALD12\DESKTOP\ALLEGRO-4.4.2-MSVC-10.0\INCLUDE\ALLEGRO\PALETTE.H
C:\USERS\DONALD12\DESKTOP\ALLEGRO-4.4.2-MSVC-10.0\INCLUDE\ALLEGRO\GFX.H
C:\USERS\DONALD12\DESKTOP\ALLEGRO-4.4.2-MSVC-10.0\INCLUDE\ALLEGRO\3D.H
C:\USERS\DONALD12\DESKTOP\ALLEGRO-4.4.2-MSVC-10.0\INCLUDE\ALLEGRO\FIXED.H
C:\USERS\DONALD12\DESKTOP\ALLEGRO-4.4.2-MSVC-10.0\INCLUDE\ALLEGRO\INLINE\GFX.INL
C:\USERS\DONALD12\DESKTOP\ALLEGRO-4.4.2-MSVC-10.0\INCLUDE\ALLEGRO\INLINE\ASM.INL
C:\USERS\DONALD12\DESKTOP\ALLEGRO-4.4.2-MSVC-10.0\INCLUDE\ALLEGRO\COLOR.H
C:\USERS\DONALD12\DESKTOP\ALLEGRO-4.4.2-MSVC-10.0\INCLUDE\ALLEGRO\INLINE\COLOR.INL
C:\USERS\DONALD12\DESKTOP\ALLEGRO-4.4.2-MSVC-10.0\INCLUDE\ALLEGRO\DRAW.H
C:\USERS\DONALD12\DESKTOP\ALLEGRO-4.4.2-MSVC-10.0\INCLUDE\ALLEGRO\INLINE\DRAW.INL
C:\USERS\DONALD12\DESKTOP\ALLEGRO-4.4.2-MSVC-10.0\INCLUDE\ALLEGRO\RLE.H
C:\USERS\DONALD12\DESKTOP\ALLEGRO-4.4.2-MSVC-10.0\INCLUDE\ALLEGRO\INLINE\RLE.INL
C:\USERS\DONALD12\DESKTOP\ALLEGRO-4.4.2-MSVC-10.0\INCLUDE\ALLEGRO\COMPILED.H
C:\USERS\DONALD12\DESKTOP\ALLEGRO-4.4.2-MSVC-10.0\INCLUDE\ALLEGRO\TEXT.H
C:\USERS\DONALD12\DESKTOP\ALLEGRO-4.4.2-MSVC-10.0\INCLUDE\ALLEGRO\FONT.H
C:\USERS\DONALD12\DESKTOP\ALLEGRO-4.4.2-MSVC-10.0\INCLUDE\ALLEGRO\FLI.H
C:\USERS\DONALD12\DESKTOP\ALLEGRO-4.4.2-MSVC-10.0\INCLUDE\ALLEGRO\GUI.H
C:\USERS\DONALD12\DESKTOP\ALLEGRO-4.4.2-MSVC-10.0\INCLUDE\ALLEGRO\SOUND.H
C:\USERS\DONALD12\DESKTOP\ALLEGRO-4.4.2-MSVC-10.0\INCLUDE\ALLEGRO\DIGI.H
C:\USERS\DONALD12\DESKTOP\ALLEGRO-4.4.2-MSVC-10.0\INCLUDE\ALLEGRO\STREAM.H
C:\USERS\DONALD12\DESKTOP\ALLEGRO-4.4.2-MSVC-10.0\INCLUDE\ALLEGRO\MIDI.H
C:\USERS\DONALD12\DESKTOP\ALLEGRO-4.4.2-MSVC-10.0\INCLUDE\ALLEGRO\FILE.H
C:\USERS\DONALD12\DESKTOP\ALLEGRO-4.4.2-MSVC-10.0\INCLUDE\ALLEGRO\LZSS.H
C:\USERS\DONALD12\DESKTOP\ALLEGRO-4.4.2-MSVC-10.0\INCLUDE\ALLEGRO\DATAFILE.H
C:\USERS\DONALD12\DESKTOP\ALLEGRO-4.4.2-MSVC-10.0\INCLUDE\ALLEGRO\FMATHS.H
C:\USERS\DONALD12\DESKTOP\ALLEGRO-4.4.2-MSVC-10.0\INCLUDE\ALLEGRO\INLINE\FMATHS.INL
C:\USERS\DONALD12\DESKTOP\ALLEGRO-4.4.2-MSVC-10.0\INCLUDE\ALLEGRO\MATRIX.H
C:\USERS\DONALD12\DESKTOP\ALLEGRO-4.4.2-MSVC-10.0\INCLUDE\ALLEGRO\INLINE\MATRIX.INL
C:\USERS\DONALD12\DESKTOP\ALLEGRO-4.4.2-MSVC-10.0\INCLUDE\ALLEGRO\QUAT.H
C:\USERS\DONALD12\DESKTOP\ALLEGRO-4.4.2-MSVC-10.0\INCLUDE\ALLEGRO\3DMATHS.H
C:\USERS\DONALD12\DESKTOP\ALLEGRO-4.4.2-MSVC-10.0\INCLUDE\ALLEGRO\INLINE\3DMATHS.INL
C:\USERS\DONALD12\DESKTOP\ALLEGRO-4.4.2-MSVC-10.0\INCLUDE\ALLEGRO\ALCOMPAT.H
C:\USERS\DONALD12\DESKTOP\ALLEGRO-4.4.2-MSVC-10.0\INCLUDE\ALLEGRO\FIX.H
C:\USERS\DONALD12\DESKTOP\ALLEGRO-4.4.2-MSVC-10.0\INCLUDE\ALLEGRO\INLINE\FIX.INL
C:\USERS\DONALD12\DESKTOP\ALLEGRO-4.4.2-MSVC-10.0\INCLUDE\ALLEGRO\PLATFORM\ALWIN.H
